^C:\USERS\FRANK DYE\DESKTOP\PROGRAMMING PROJECTS\CSC340-HW7\DEBUG\DYNAMICARRAY.OBJ|C:\USERS\FRANK DYE\DESKTOP\PROGRAMMING PROJECTS\CSC340-HW7\DEBUG\MAIN.OBJ
C:\USERS\FRANK DYE\DESKTOP\PROGRAMMING PROJECTS\CSC340-HW7\DEBUG\CSC340-HW7.ILK
C:\USERS\FRANK DYE\DESKTOP\PROGRAMMING PROJECTS\CSC340-HW7\DEBUG\CSC340-HW7.EXE
C:\USERS\FRANK DYE\DESKTOP\PROGRAMMING PROJECTS\CSC340-HW7\DEBUG\CSC340-HW7.PDB
